{
  "type": "service_account",
  "project_id": "itinerary-260610",
  "private_key_id": "9096fa0f903dab8f472d5e0365889fab47972fb7",
  "private_key": "-----BEGIN PRIVATE KEY-----\nMIIEvAIBADANBgkqhkiG9w0BAQEFAASCBKYwggSiAgEAAoIBAQDeZvg70l8GolJU\nT9agOO7TEkV1bczgxb5syxdp4kcJ/YelwGV5v97HHbSdxLgbU/hm5vI8rkm2ezGc\nycS1qKAekOkT6aN1iKYUdelaHgf+3g8dAS9f5JL96wTKc468LJW8R+Nh5m/WCpxW\nbxNAK4xYu33O9IZgc2JIplfmGhyTIOdTpvefTQogxW5UhUNq+jtMdZJCYKI+exHb\nBL2AjpnNIYaHa+jDc+l+DyJ72EUlU2PoDlMmspYymwghyDxSUuof6glsRqV82EGz\nUNjfgaGmBDRW/TA+Fd6qe7eQuGT9b8hSK4E1+0xLMtdznQEz2GNevheTx1UNmMrS\nLGGWbKDVAgMBAAECggEAFfrdO6RN6ezu8BA36PvXdprOrI1eezRv3nav6LIJTU52\nMoZyQPcagFlKOXFwtJq26QyYEjEzbcp9G77BJyb0NDEkJ+imU/5eU5VXq6VeKu0t\nVzN/yB1h/aBVh+Cl0akiX0pHiaxpjyDbVJuDrorfQwG8rFB0W2Hr67ws4bvg6RVf\nN5505x34TwSettWmAflR3eEQcj5kDEWN5CzfMlV0rbPrPdwvujeQynqjh9I81Euv\nwY8gT6Oyvw1QjQ46l48nSd16CTuFoWsi1O8h02pkobLEsD/IMCoLIBbzreTZkxon\nmcAhmFL2HrfBE4mCy/n/XRyFQjlyAvJN6RHxWlFOwQKBgQD2DR2K3ijjgEf73iy4\n/7mHNGhgnZWxhHgOMz4bMNeM1UPuGhUUese3Z79nEYYz/MjleCc7+tA/lmhG6EPd\nYZ7cPiQ620Q/RAGKEs7wDrHOBuTKynejX7W9+Fx7vllpvMTPZBlLZFwXYQXNjj7+\nnj1FyYl4ARaIC9fjAmg47AZC8QKBgQDnZRAGSMtSlB8m/frBX3YlmbHM7Fal11Cs\nZWJYgtV76DrV+baS5Pr3tS7OzbvZK668XLzsS/AoGYcnvIylOR9KRkrt4Z4DNzAc\nm/asmScYRZ+dSSdEYgW5S2UVIiZnRl69zhs/Z8DdLt/bAihIe+I05eEsK/BOq9Ca\nNdMA2qw0JQKBgDtXgm6Bkh78S2Alf2fG1ToUm6/hkb7Ukhfqp+nq57GhpdaBF+Bu\nlEhZj0IOae2T4+fkCKJgpWUQo2mmjuePqb64hghj5ZvUjQJ98sbW5G8qHngCSMRw\nSubcRYHasLnduyHBpJAYTlWdIscmrW6/P0vbhXoZ2RNKt/CaHgTMd94hAoGAXHo3\nfUt6dvZbvOmkXcQZI83ZEV0jBASZaUzbkSQ4zdxyJzI1lV+OLZFrs5rliFW87+rg\nVk/DG0OYkHj6fM3ng3e0Wn3g+MgFomlynGhZB4pL0EB8QQgr4XIQY/HSB1RIaPMG\nUMDWg49IR+8EynM4ZIu7AjxNPiPMqtT4D09Vo0ECgYA1Oc6nc+NyampSutcpbz4h\nhZOKUtVIFxQi2+TSyISAB4WOzvk+LWdzikloQl7lzKdrYi2/82MZQ2KoqZRjbtTK\nX2oZ/pKcGsYZ+wz8WJULwlgTGkapUSJccZaJlBsTQdzhobilYIHS8vDZ+bpn/t5o\ntm6LzXJ/S1LnST9dFjDQmA==\n-----END PRIVATE KEY-----\n",
  "client_email": "itinerary-260610@appspot.gserviceaccount.com",
  "client_id": "109054141411805301753",
  "auth_uri": "https://accounts.google.com/o/oauth2/auth",
  "token_uri": "https://oauth2.googleapis.com/token",
  "auth_provider_x509_cert_url": "https://www.googleapis.com/oauth2/v1/certs",
  "client_x509_cert_url": "https://www.googleapis.com/robot/v1/metadata/x509/itinerary-260610%40appspot.gserviceaccount.com"
}
